{
  "window": {
    "navigationBarTextStyle": "white",
    "navigationBarBackgroundColor": "#191919",
    "backgroundColor": "#191919"
  },
  "tabBar": {
    "color": "#FCFCFC",
    "selectedColor": "#51A937",
    "borderStyle": "white",
    "backgroundColor": "#191919",
    "list": [
      {
        "pagePath": "page/index/index",
        "iconPath": "@iconPathComponent",
        "selectedIconPath": "@selectedIconPathComponent",
        "text": "报告"
      },
      {
        "pagePath": "page/questionnaire/questionnaire",
        "iconPath": "@iconPathAPI",
        "selectedIconPath": "@selectedIconPathAPI",
        "text": "问卷"
      }
    ]
  }
}